dump.vcd
$date
	Sat Nov 15 06:26:35 2025
$end
$version
	Icarus Verilog
$end
$timescale
	1ps
$end
$scope module tb $end
$var wire 32 ! imem_instr [31:0] $end
$var wire 32 " imem_addr [31:0] $end
$var wire 1 # halted $end
$var wire 1 $ dmem_we $end
$var wire 32 % dmem_wdata [31:0] $end
$var wire 1 & dmem_re $end
$var wire 32 ' dmem_rdata [31:0] $end
$var wire 32 ( dmem_addr [31:0] $end
$var reg 1 ) clk $end
$var reg 1 * reset_n $end
$var integer 32 + a [31:0] $end
$var integer 32 , i [31:0] $end
$var integer 32 - nonzero [31:0] $end
$var integer 32 . ok [31:0] $end
$scope module U_CPU $end
$var wire 1 ) clk $end
$var wire 32 / dmem_addr [31:0] $end
$var wire 32 0 dmem_wdata [31:0] $end
$var wire 1 1 do_branch $end
$var wire 1 # halted $end
$var wire 32 2 imem_addr [31:0] $end
$var wire 32 3 instr [31:0] $end
$var wire 1 * reset_n $end
$var wire 1 4 take_beq $end
$var wire 1 5 take_bne $end
$var wire 32 6 rs2_val [31:0] $end
$var wire 5 7 rs2_mux [4:0] $end
$var wire 5 8 rs2_i [4:0] $end
$var wire 32 9 rs1_val [31:0] $end
$var wire 5 : rs1_mux [4:0] $end
$var wire 5 ; rs1_i [4:0] $end
$var wire 1 < reg_write $end
$var wire 5 = rd [4:0] $end
$var wire 32 > pc_next_norm [31:0] $end
$var wire 32 ? pc_next [31:0] $end
$var wire 7 @ opcode [6:0] $end
$var wire 1 A mem_write $end
$var wire 1 B mem_to_reg $end
$var wire 1 C mem_read $end
$var wire 1 D jump_jalr $end
$var wire 1 E jump_jal $end
$var wire 1 F is_ebreak $end
$var wire 1 G is_aes $end
$var wire 32 H imm_u [31:0] $end
$var wire 32 I imm_s [31:0] $end
$var wire 32 J imm_j [31:0] $end
$var wire 32 K imm_i [31:0] $end
$var wire 32 L imm_for_alu [31:0] $end
$var wire 32 M imm_b [31:0] $end
$var wire 32 N imem_instr [31:0] $end
$var wire 3 O funct3 [2:0] $end
$var wire 1 $ dmem_we $end
$var wire 1 & dmem_re $end
$var wire 32 P dmem_rdata [31:0] $end
$var wire 1 Q branch $end
$var wire 32 R alu_y [31:0] $end
$var wire 1 S alu_src_imm $end
$var wire 4 T alu_op [3:0] $end
$var wire 32 U alu_b [31:0] $end
$var wire 32 V alu_a [31:0] $end
$var wire 1 W aes_dec $end
$var wire 128 X aes_comb_out [127:0] $end
$var reg 1 Y aes_busy $end
$var reg 1 Z aes_mode_dec $end
$var reg 5 [ aes_rd_base [4:0] $end
$var reg 128 \ aes_res [127:0] $end
$var reg 5 ] aes_rs1_base [4:0] $end
$var reg 5 ^ aes_rs2_base [4:0] $end
$var reg 4 _ aes_state [3:0] $end
$var reg 1 ` boot_busy $end
$var reg 4 a boot_idx [3:0] $end
$var reg 128 b data_buf [127:0] $end
$var reg 1 c halt_r $end
$var reg 128 d key_buf [127:0] $end
$var reg 32 e pc [31:0] $end
$var reg 5 f rf_waddr [4:0] $end
$var reg 32 g rf_wdata [31:0] $end
$var reg 1 h rf_we $end
$scope module u_aes $end
$var wire 128 i ark_d [127:0] $end
$var wire 128 j ark_e [127:0] $end
$var wire 128 k data_in [127:0] $end
$var wire 1 Z enc_dec $end
$var wire 128 l key [127:0] $end
$var wire 128 m sr [127:0] $end
$var wire 128 n sb [127:0] $end
$var wire 128 o mc [127:0] $end
$var wire 128 p isr [127:0] $end
$var wire 128 q imc [127:0] $end
$var wire 128 r ib [127:0] $end
$var wire 128 s data_out [127:0] $end
$scope module U_IMC $end
$var wire 128 t in [127:0] $end
$var wire 128 u out [127:0] $end
$scope function mul11 $end
$var reg 8 v a [7:0] $end
$upscope $end
$scope function mul13 $end
$var reg 8 w a [7:0] $end
$upscope $end
$scope function mul14 $end
$var reg 8 x a [7:0] $end
$upscope $end
$scope function mul2 $end
$var reg 8 y a [7:0] $end
$upscope $end
$scope function mul4 $end
$var reg 8 z a [7:0] $end
$upscope $end
$scope function mul8 $end
$var reg 8 { a [7:0] $end
$upscope $end
$scope function mul9 $end
$var reg 8 | a [7:0] $end
$upscope $end
$scope function xtime $end
$var reg 8 } a [7:0] $end
$upscope $end
$scope begin COL[0] $end
$var wire 8 ~ s0 [7:0] $end
$var wire 8 !" s1 [7:0] $end
$var wire 8 "" s2 [7:0] $end
$var wire 8 #" s3 [7:0] $end
$var parameter 2 $" c $end
$upscope $end
$scope begin COL[1] $end
$var wire 8 %" s0 [7:0] $end
$var wire 8 &" s1 [7:0] $end
$var wire 8 '" s2 [7:0] $end
$var wire 8 (" s3 [7:0] $end
$var parameter 2 )" c $end
$upscope $end
$scope begin COL[2] $end
$var wire 8 *" s0 [7:0] $end
$var wire 8 +" s1 [7:0] $end
$var wire 8 ," s2 [7:0] $end
$var wire 8 -" s3 [7:0] $end
$var parameter 3 ." c $end
$upscope $end
$scope begin COL[3] $end
$var wire 8 /" s0 [7:0] $end
$var wire 8 0" s1 [7:0] $end
$var wire 8 1" s2 [7:0] $end
$var wire 8 2" s3 [7:0] $end
$var parameter 3 3" c $end
$upscope $end
$upscope $end
$scope module U_ISB $end
$var wire 128 4" out [127:0] $end
$var wire 128 5" in [127:0] $end
$scope begin G[0] $end
$var parameter 2 6" k $end
$scope module SB $end
$var wire 8 7" in [7:0] $end
$var reg 8 8" out [7:0] $end
$upscope $end
$upscope $end
$scope begin G[1] $end
$var parameter 2 9" k $end
$scope module SB $end
$var wire 8 :" in [7:0] $end
$var reg 8 ;" out [7:0] $end
$upscope $end
$upscope $end
$scope begin G[2] $end
$var parameter 3 <" k $end
$scope module SB $end
$var wire 8 =" in [7:0] $end
$var reg 8 >" out [7:0] $end
$upscope $end
$upscope $end
$scope begin G[3] $end
$var parameter 3 ?" k $end
$scope module SB $end
$var wire 8 @" in [7:0] $end
$var reg 8 A" out [7:0] $end
$upscope $end
$upscope $end
$scope begin G[4] $end
$var parameter 4 B" k $end
$scope module SB $end
$var wire 8 C" in [7:0] $end
$var reg 8 D" out [7:0] $end
$upscope $end
$upscope $end
$scope begin G[5] $end
$var parameter 4 E" k $end
$scope module SB $end
$var wire 8 F" in [7:0] $end
$var reg 8 G" out [7:0] $end
$upscope $end
$upscope $end
$scope begin G[6] $end
$var parameter 4 H" k $end
$scope module SB $end
$var wire 8 I" in [7:0] $end
$var reg 8 J" out [7:0] $end
$upscope $end
$upscope $end
$scope begin G[7] $end
$var parameter 4 K" k $end
$scope module SB $end
$var wire 8 L" in [7:0] $end
$var reg 8 M" out [7:0] $end
$upscope $end
$upscope $end
$scope begin G[8] $end
$var parameter 5 N" k $end
$scope module SB $end
$var wire 8 O" in [7:0] $end
$var reg 8 P" out [7:0] $end
$upscope $end
$upscope $end
$scope begin G[9] $end
$var parameter 5 Q" k $end
$scope module SB $end
$var wire 8 R" in [7:0] $end
$var reg 8 S" out [7:0] $end
$upscope $end
$upscope $end
$scope begin G[10] $end
$var parameter 5 T" k $end
$scope module SB $end
$var wire 8 U" in [7:0] $end
$var reg 8 V" out [7:0] $end
$upscope $end
$upscope $end
$scope begin G[11] $end
$var parameter 5 W" k $end
$scope module SB $end
$var wire 8 X" in [7:0] $end
$var reg 8 Y" out [7:0] $end
$upscope $end
$upscope $end
$scope begin G[12] $end
$var parameter 5 Z" k $end
$scope module SB $end
$var wire 8 [" in [7:0] $end
$var reg 8 \" out [7:0] $end
$upscope $end
$upscope $end
$scope begin G[13] $end
$var parameter 5 ]" k $end
$scope module SB $end
$var wire 8 ^" in [7:0] $end
$var reg 8 _" out [7:0] $end
$upscope $end
$upscope $end
$scope begin G[14] $end
$var parameter 5 `" k $end
$scope module SB $end
$var wire 8 a" in [7:0] $end
$var reg 8 b" out [7:0] $end
$upscope $end
$upscope $end
$scope begin G[15] $end
$var parameter 5 c" k $end
$scope module SB $end
$var wire 8 d" in [7:0] $end
$var reg 8 e" out [7:0] $end
$upscope $end
$upscope $end
$upscope $end
$scope module U_ISR $end
$var wire 128 f" in [127:0] $end
$var wire 128 g" out [127:0] $end
$upscope $end
$scope module U_MC $end
$var wire 128 h" out [127:0] $end
$var wire 128 i" in [127:0] $end
$scope function xtime2 $end
$var reg 8 j" a [7:0] $end
$upscope $end
$scope function xtime3 $end
$var reg 8 k" a [7:0] $end
$upscope $end
$scope begin COL[0] $end
$var wire 8 l" s0 [7:0] $end
$var wire 8 m" s1 [7:0] $end
$var wire 8 n" s2 [7:0] $end
$var wire 8 o" s3 [7:0] $end
$var parameter 2 p" c $end
$upscope $end
$scope begin COL[1] $end
$var wire 8 q" s0 [7:0] $end
$var wire 8 r" s1 [7:0] $end
$var wire 8 s" s2 [7:0] $end
$var wire 8 t" s3 [7:0] $end
$var parameter 2 u" c $end
$upscope $end
$scope begin COL[2] $end
$var wire 8 v" s0 [7:0] $end
$var wire 8 w" s1 [7:0] $end
$var wire 8 x" s2 [7:0] $end
$var wire 8 y" s3 [7:0] $end
$var parameter 3 z" c $end
$upscope $end
$scope begin COL[3] $end
$var wire 8 {" s0 [7:0] $end
$var wire 8 |" s1 [7:0] $end
$var wire 8 }" s2 [7:0] $end
$var wire 8 ~" s3 [7:0] $end
$var parameter 3 !# c $end
$upscope $end
$upscope $end
$scope module U_SB $end
$var wire 128 "# in [127:0] $end
$var wire 128 ## out [127:0] $end
$scope begin G[0] $end
$var parameter 2 $# k $end
$scope module SB $end
$var wire 8 %# in [7:0] $end
$var reg 8 &# out [7:0] $end
$upscope $end
$upscope $end
$scope begin G[1] $end
$var parameter 2 '# k $end
$scope module SB $end
$var wire 8 (# in [7:0] $end
$var reg 8 )# out [7:0] $end
$upscope $end
$upscope $end
$scope begin G[2] $end
$var parameter 3 *# k $end
$scope module SB $end
$var wire 8 +# in [7:0] $end
$var reg 8 ,# out [7:0] $end
$upscope $end
$upscope $end
$scope begin G[3] $end
$var parameter 3 -# k $end
$scope module SB $end
$var wire 8 .# in [7:0] $end
$var reg 8 /# out [7:0] $end
$upscope $end
$upscope $end
$scope begin G[4] $end
$var parameter 4 0# k $end
$scope module SB $end
$var wire 8 1# in [7:0] $end
$var reg 8 2# out [7:0] $end
$upscope $end
$upscope $end
$scope begin G[5] $end
$var parameter 4 3# k $end
$scope module SB $end
$var wire 8 4# in [7:0] $end
$var reg 8 5# out [7:0] $end
$upscope $end
$upscope $end
$scope begin G[6] $end
$var parameter 4 6# k $end
$scope module SB $end
$var wire 8 7# in [7:0] $end
$var reg 8 8# out [7:0] $end
$upscope $end
$upscope $end
$scope begin G[7] $end
$var parameter 4 9# k $end
$scope module SB $end
$var wire 8 :# in [7:0] $end
$var reg 8 ;# out [7:0] $end
$upscope $end
$upscope $end
$scope begin G[8] $end
$var parameter 5 <# k $end
$scope module SB $end
$var wire 8 =# in [7:0] $end
$var reg 8 ># out [7:0] $end
$upscope $end
$upscope $end
$scope begin G[9] $end
$var parameter 5 ?# k $end
$scope module SB $end
$var wire 8 @# in [7:0] $end
$var reg 8 A# out [7:0] $end
$upscope $end
$upscope $end
$scope begin G[10] $end
$var parameter 5 B# k $end
$scope module SB $end
$var wire 8 C# in [7:0] $end
$var reg 8 D# out [7:0] $end
$upscope $end
$upscope $end
$scope begin G[11] $end
$var parameter 5 E# k $end
$scope module SB $end
$var wire 8 F# in [7:0] $end
$var reg 8 G# out [7:0] $end
$upscope $end
$upscope $end
$scope begin G[12] $end
$var parameter 5 H# k $end
$scope module SB $end
$var wire 8 I# in [7:0] $end
$var reg 8 J# out [7:0] $end
$upscope $end
$upscope $end
$scope begin G[13] $end
$var parameter 5 K# k $end
$scope module SB $end
$var wire 8 L# in [7:0] $end
$var reg 8 M# out [7:0] $end
$upscope $end
$upscope $end
$scope begin G[14] $end
$var parameter 5 N# k $end
$scope module SB $end
$var wire 8 O# in [7:0] $end
$var reg 8 P# out [7:0] $end
$upscope $end
$upscope $end
$scope begin G[15] $end
$var parameter 5 Q# k $end
$scope module SB $end
$var wire 8 R# in [7:0] $end
$var reg 8 S# out [7:0] $end
$upscope $end
$upscope $end
$upscope $end
$scope module U_SR $end
$var wire 128 T# in [127:0] $end
$var wire 128 U# out [127:0] $end
$upscope $end
$upscope $end
$scope module u_alu $end
$var wire 32 V# a [31:0] $end
$var wire 32 W# b [31:0] $end
$var wire 32 X# sa [31:0] $end
$var wire 32 Y# sb [31:0] $end
$var wire 4 Z# alu_op [3:0] $end
$var parameter 4 [# ALU_ADD $end
$var parameter 4 \# ALU_AND $end
$var parameter 4 ]# ALU_OR $end
$var parameter 4 ^# ALU_SLL $end
$var parameter 4 _# ALU_SLT $end
$var parameter 4 `# ALU_SLTU $end
$var parameter 4 a# ALU_SRA $end
$var parameter 4 b# ALU_SRL $end
$var parameter 4 c# ALU_SUB $end
$var parameter 4 d# ALU_XOR $end
$var reg 32 e# y [31:0] $end
$upscope $end
$scope module u_ctl $end
$var wire 32 f# instr [31:0] $end
$var wire 1 G is_aes $end
$var wire 1 g# opcode_custom0 $end
$var wire 7 h# opcode [6:0] $end
$var wire 1 F is_ebreak $end
$var wire 7 i# funct7 [6:0] $end
$var wire 3 j# funct3 [2:0] $end
$var wire 1 W aes_dec $end
$var parameter 4 k# ALU_ADD $end
$var parameter 4 l# ALU_AND $end
$var parameter 4 m# ALU_OR $end
$var parameter 4 n# ALU_SLL $end
$var parameter 4 o# ALU_SLT $end
$var parameter 4 p# ALU_SLTU $end
$var parameter 4 q# ALU_SRA $end
$var parameter 4 r# ALU_SRL $end
$var parameter 4 s# ALU_SUB $end
$var parameter 4 t# ALU_XOR $end
$var reg 4 u# alu_op [3:0] $end
$var reg 1 S alu_src_imm $end
$var reg 1 Q branch $end
$var reg 1 E jump_jal $end
$var reg 1 D jump_jalr $end
$var reg 1 C mem_read $end
$var reg 1 B mem_to_reg $end
$var reg 1 A mem_write $end
$var reg 1 < reg_write $end
$upscope $end
$scope module u_imm $end
$var wire 32 v# instr [31:0] $end
$var reg 32 w# imm_b [31:0] $end
$var reg 32 x# imm_i [31:0] $end
$var reg 32 y# imm_j [31:0] $end
$var reg 32 z# imm_s [31:0] $end
$var reg 32 {# imm_u [31:0] $end
$upscope $end
$scope module u_rf $end
$var wire 1 ) clk $end
$var wire 5 |# rd [4:0] $end
$var wire 5 }# rs1 [4:0] $end
$var wire 5 ~# rs2 [4:0] $end
$var wire 32 !$ wd [31:0] $end
$var wire 1 h we $end
$var wire 32 "$ rd2 [31:0] $end
$var wire 32 #$ rd1 [31:0] $end
$var integer 32 $$ j [31:0] $end
$scope task dump_all_named $end
$upscope $end
$upscope $end
$upscope $end
$scope module U_DMEM $end
$var wire 32 %$ addr [31:0] $end
$var wire 1 ) clk $end
$var wire 1 & mem_read $end
$var wire 1 $ mem_write $end
$var wire 32 &$ wd [31:0] $end
$var wire 32 '$ rd [31:0] $end
$var wire 32 ($ a [31:0] $end
$var integer 32 )$ i [31:0] $end
$upscope $end
$scope module U_IMEM $end
$var wire 32 *$ addr [31:0] $end
$var wire 32 +$ instr [31:0] $end
$var integer 32 ,$ i [31:0] $end
$upscope $end
$upscope $end
$enddefinitions $end
$comment Show the parameter values. $end
$dumpall
b100 t#
b1 s#
b110 r#
b111 q#
b1001 p#
b1000 o#
b101 n#
b11 m#
b10 l#
b0 k#
b100 d#
b1 c#
b110 b#
b111 a#
b1001 `#
b1000 _#
b101 ^#
b11 ]#
b10 \#
b0 [#
b1111 Q#
b1110 N#
b1101 K#
b1100 H#
b1011 E#
b1010 B#
b1001 ?#
b1000 <#
b111 9#
b110 6#
b101 3#
b100 0#
b11 -#
b10 *#
b1 '#
b0 $#
b11 !#
b10 z"
b1 u"
b0 p"
b1111 c"
b1110 `"
b1101 ]"
b1100 Z"
b1011 W"
b1010 T"
b1001 Q"
b1000 N"
b111 K"
b110 H"
b101 E"
b100 B"
b11 ?"
b10 <"
b1 9"
b0 6"
b11 3"
b10 ."
b1 )"
b0 $"
$end
#0
$dumpvars
b100000000 ,$
b111110011100000000000010010011 +$
b0 *$
b10000000000 )$
b1111100100 ($
b0 '$
b0 &$
b1111100111 %$
b100000 $$
b0 #$
b0 "$
b0 !$
b111 ~#
b0 }#
b0 |#
b111110011100000000000000000000 {#
b1111100001 z#
b101111100110 y#
b1111100111 x#
b101111100000 w#
b111110011100000000000010010011 v#
b0 u#
b0 j#
b11111 i#
b10011 h#
0g#
b111110011100000000000010010011 f#
b1111100111 e#
b0 Z#
b1111100111 Y#
b0 X#
b1111100111 W#
b0 V#
b1100011011000110110001101100011011000110110001101100011011000110110001101100011011000110110001101100011011000110110001101100011 U#
b1100011011000110110001101100011011000110110001101100011011000110110001101100011011000110110001101100011011000110110001101100011 T#
b1100011 S#
b0 R#
b1100011 P#
b0 O#
b1100011 M#
b0 L#
b1100011 J#
b0 I#
b1100011 G#
b0 F#
b1100011 D#
b0 C#
b1100011 A#
b0 @#
b1100011 >#
b0 =#
b1100011 ;#
b0 :#
b1100011 8#
b0 7#
b1100011 5#
b0 4#
b1100011 2#
b0 1#
b1100011 /#
b0 .#
b1100011 ,#
b0 +#
b1100011 )#
b0 (#
b1100011 &#
b0 %#
b1100011011000110110001101100011011000110110001101100011011000110110001101100011011000110110001101100011011000110110001101100011 ##
b0 "#
b1100011 ~"
b1100011 }"
b1100011 |"
b1100011 {"
b1100011 y"
b1100011 x"
b1100011 w"
b1100011 v"
b1100011 t"
b1100011 s"
b1100011 r"
b1100011 q"
b1100011 o"
b1100011 n"
b1100011 m"
b1100011 l"
b1100011 k"
b1100011 j"
b1100011011000110110001101100011011000110110001101100011011000110110001101100011011000110110001101100011011000110110001101100011 i"
b1100011011000110110001101100011011000110110001101100011011000110110001101100011011000110110001101100011011000110110001101100011 h"
b0 g"
b0 f"
b1010010 e"
b0 d"
b1010010 b"
b0 a"
b1010010 _"
b0 ^"
b1010010 \"
b0 ["
b1010010 Y"
b0 X"
b1010010 V"
b0 U"
b1010010 S"
b0 R"
b1010010 P"
b0 O"
b1010010 M"
b0 L"
b1010010 J"
b0 I"
b1010010 G"
b0 F"
b1010010 D"
b0 C"
b1010010 A"
b0 @"
b1010010 >"
b0 ="
b1010010 ;"
b0 :"
b1010010 8"
b0 7"
b0 5"
b1010010010100100101001001010010010100100101001001010010010100100101001001010010010100100101001001010010010100100101001001010010 4"
b0 2"
b0 1"
b0 0"
b0 /"
b0 -"
b0 ,"
b0 +"
b0 *"
b0 ("
b0 '"
b0 &"
b0 %"
b0 #"
b0 ""
b0 !"
b0 ~
b0 }
b0 |
b0 {
b0 z
b0 y
b0 x
b0 w
b0 v
b0 u
b0 t
b1xx001x01xx001x01xx001x01xx001x01xx001x01xx001x01xx001x01xx001x01xx001x01xx001x01xx001x01xx001x01xx001x01xx001x01xx001x01xx001x s
b1010010010100100101001001010010010100100101001001010010010100100101001001010010010100100101001001010010010100100101001001010010 r
b0 q
b0 p
b1100011011000110110001101100011011000110110001101100011011000110110001101100011011000110110001101100011011000110110001101100011 o
b1100011011000110110001101100011011000110110001101100011011000110110001101100011011000110110001101100011011000110110001101100011 n
b1100011011000110110001101100011011000110110001101100011011000110110001101100011011000110110001101100011011000110110001101100011 m
b0 l
b0 k
b1100011011000110110001101100011011000110110001101100011011000110110001101100011011000110110001101100011011000110110001101100011 j
b0 i
0h
b0 g
b0 f
b0 e
b0 d
0c
b0 b
b0 a
1`
b0 _
bx ^
bx ]
b0 \
bx [
xZ
0Y
b1xx001x01xx001x01xx001x01xx001x01xx001x01xx001x01xx001x01xx001x01xx001x01xx001x01xx001x01xx001x01xx001x01xx001x01xx001x01xx001x X
1W
b0 V
b1111100111 U
b0 T
1S
b1111100111 R
0Q
b0 P
b0 O
b111110011100000000000010010011 N
b101111100000 M
b1111100111 L
b1111100111 K
b101111100110 J
b1111100001 I
b111110011100000000000000000000 H
0G
0F
0E
0D
0C
0B
0A
b10011 @
b0 ?
b100 >
b1 =
1<
b0 ;
b0 :
b0 9
b111 8
b111 7
b0 6
05
14
b111110011100000000000010010011 3
b0 2
01
b0 0
b1111100111 /
bx .
bx -
bx ,
bx +
0*
0)
b1111100111 (
b0 '
0&
b0 %
0$
0#
b0 "
b111110011100000000000010010011 !
$end
#5000
1)
#10000
0)
#15000
1)
#20000
0)
1*
#25000
b1 a
b11010100110000111011001010100001 g
b11010100110000111011001010100001 !$
b1010 f
b1010 |#
1h
1)
#30000
0)
#35000
b10 a
b11000000001111111011011100101 g
b11000000001111111011011100101 !$
b1011 f
b1011 |#
1h
1)
#40000
0)
#45000
b11 a
b1011100010010110011101000101001 g
b1011100010010110011101000101001 !$
b1100 f
b1100 |#
1h
1)
#50000
0)
#55000
b100 a
b10010000111110001110011111010110 g
b10010000111110001110011111010110 !$
b1101 f
b1101 |#
1h
1)
#60000
0)
#65000
b101 a
b11001010101000000100011100001111 g
b11001010101000000100011100001111 !$
b1110 f
b1110 |#
1h
1)
#70000
0)
#75000
b110 a
b101110011111110101110111001100 g
b101110011111110101110111001100 !$
b1111 f
b1111 |#
1h
1)
#80000
0)
#85000
b111 a
b101000000010010011110100011011 g
b101000000010010011110100011011 !$
b10000 f
b10000 |#
1h
1)
#90000
0)
#95000
b100 ?
0`
b11011000110001101010000111110100 g
b11011000110001101010000111110100 !$
b10001 f
b10001 |#
1h
1)
#100000
0)
#105000
b1100001000 ($
b1100001001 (
b1100001001 /
b1100001001 %$
b1100001001 R
b1100001001 e#
b1000 ?
b1100001001 Y#
b1100001001 U
b1100001001 W#
b1100001001 L
b1000 >
b1001 7
b1001 ~#
1S
1<
b10 =
b1001 8
b11000 i#
0W
b101100001000 J
b101100001000 y#
b110000100100000000000000000000 H
b110000100100000000000000000000 {#
b1100000010 M
b1100000010 w#
b1100000010 I
b1100000010 z#
b1100001001 K
b1100001001 x#
b110000100100000000000100010011 3
b110000100100000000000100010011 f#
b110000100100000000000100010011 v#
b110000100100000000000100010011 !
b110000100100000000000100010011 N
b110000100100000000000100010011 +$
b1111100111 g
b1111100111 !$
b1 f
b1 |#
b100 "
b100 2
b100 *$
b100 e
1h
1)
#110000
0)
#115000
b1110000 ($
b1110011 (
b1110011 /
b1110011 %$
b1110011 R
b1110011 e#
b1100 ?
b1110011 Y#
b1110011 U
b1110011 W#
b1110011 L
b1100 >
b10 :
b10 }#
b10011 7
b10011 ~#
1S
1<
b10 ;
b10011 8
b11 i#
1W
b10000100001110010 J
b10000100001110010 y#
b111001100010000000000000000 H
b111001100010000000000000000 {#
b1100010 M
b1100010 w#
b1100010 I
b1100010 z#
b1110011 K
b1110011 x#
b111001100010000000100010011 3
b111001100010000000100010011 f#
b111001100010000000100010011 v#
b111001100010000000100010011 !
b111001100010000000100010011 N
b111001100010000000100010011 +$
b1100001001 g
b1100001001 !$
b10 f
b10 |#
b1000 "
b1000 2
b1000 *$
b1000 e
1h
1)
#120000
0)
#125000
b11011110000 ($
b10000 ?
b1100001001 %
b1100001001 0
b1100001001 &$
b1100001001 6
b1100001001 "$
b1100001001 Y#
b1100001001 U
b1100001001 W#
b10 L
b11011110000 (
b11011110000 /
b11011110000 %$
b11011110000 R
b11011110000 e#
b10000 >
b1 :
b1 }#
b10 7
b10 ~#
0S
1<
04
b1111100111 X#
b1111100111 V
b1111100111 V#
b110011 @
b11 =
b1 ;
b10 8
b110011 h#
b0 i#
0W
b1000000000000010 J
b1000000000000010 y#
b1000001000000000000000 H
b1000001000000000000000 {#
b100000000010 M
b100000000010 w#
b11 I
b11 z#
b10 K
b10 x#
b1111100111 9
b1111100111 #$
b1000001000000110110011 3
b1000001000000110110011 f#
b1000001000000110110011 v#
b1000001000000110110011 !
b1000001000000110110011 N
b1000001000000110110011 +$
b1110011 g
b1110011 !$
b1100 "
b1100 2
b1100 *$
b1100 e
1h
1)
#130000
0)
#135000
b1101110100 ($
b10100 ?
b10000000010 L
b1101110100 (
b1101110100 /
b1101110100 %$
b1101110100 R
b1101110100 e#
b10100 >
b1 T
b1 Z#
b1 u#
1<
b1110011 Y#
b1110011 U
b1110011 W#
b100 =
b100000 i#
b1000010000000010 J
b1000010000000010 y#
b1000000001000001000000000000000 H
b1000000001000001000000000000000 {#
b10000000100 M
b10000000100 w#
b10000000100 I
b10000000100 z#
b10000000010 K
b10000000010 x#
b1110011 %
b1110011 0
b1110011 &$
b1110011 6
b1110011 "$
b1000000001000001000001000110011 3
b1000000001000001000001000110011 f#
b1000000001000001000001000110011 v#
b1000000001000001000001000110011 !
b1000000001000001000001000110011 N
b1000000001000001000001000110011 +$
b11011110000 g
b11011110000 !$
b11 f
b11 |#
b10000 "
b10000 2
b10000 *$
b10000 e
1h
1)
#140000
0)
#145000
b1110010100 ($
b11000 ?
b1110010100 (
b1110010100 /
b1110010100 %$
b1110010100 R
b1110010100 e#
b10 L
b11000 >
b100 T
b100 Z#
b100 u#
1<
b101 =
b100 O
b100 j#
b0 i#
b1100000000000010 J
b1100000000000010 y#
b1000001100000000000000 H
b1000001100000000000000 {#
b100000000100 M
b100000000100 w#
b101 I
b101 z#
b10 K
b10 x#
b1000001100001010110011 3
b1000001100001010110011 f#
b1000001100001010110011 v#
b1000001100001010110011 !
b1000001100001010110011 N
b1000001100001010110011 +$
b1101110100 g
b1101110100 !$
b100 f
b100 |#
b10100 "
b10100 2
b10100 *$
b10100 e
1h
1)
#150000
0)
#155000
b1111110100 ($
b11100 ?
b1111110111 (
b1111110111 /
b1111110111 %$
b1111110111 R
b1111110111 e#
b11100 >
b11 T
b11 Z#
b11 u#
1<
b110 =
b110 O
b110 j#
b1110000000000010 J
b1110000000000010 y#
b1000001110000000000000 H
b1000001110000000000000 {#
b110 M
b110 w#
b110 I
b110 z#
b1000001110001100110011 3
b1000001110001100110011 f#
b1000001110001100110011 v#
b1000001110001100110011 !
b1000001110001100110011 N
b1000001110001100110011 +$
b1110010100 g
b1110010100 !$
b101 f
b101 |#
b11000 "
b11000 2
b11000 *$
b11000 e
1h
1)
#160000
0)
#165000
b0 X#
b0 V
b0 V#
b0 ($
b100000 ?
b0 9
b0 #$
b0 (
b0 /
b0 %$
b0 R
b0 e#
b100000 >
b0 :
b0 }#
b10 T
b10 Z#
b10 u#
1<
b111 =
b111 O
b0 ;
b111 j#
b111000000000010 J
b111000000000010 y#
b1000000111000000000000 H
b1000000111000000000000 {#
b100000000110 M
b100000000110 w#
b111 I
b111 z#
b1000000111001110110011 3
b1000000111001110110011 f#
b1000000111001110110011 v#
b1000000111001110110011 !
b1000000111001110110011 N
b1000000111001110110011 +$
b1111110111 g
b1111110111 !$
b110 f
b110 |#
b11100 "
b11100 2
b11100 *$
b11100 e
1h
1)
#170000
0)
#175000
b11001010101000000100011100001111 X#
b11001010101000000100011100001111 V
b11001010101000000100011100001111 V#
b11010100110000111011001010100001 Y#
b11010100110000111011001010100001 U
b11010100110000111011001010100001 W#
b100110110000 ($
b100100 ?
b11001010101000000100011100001111 9
b11001010101000000100011100001111 #$
b11010100110000111011001010100001 %
b11010100110000111011001010100001 0
b11010100110000111011001010100001 &$
b11010100110000111011001010100001 6
b11010100110000111011001010100001 "$
b10011111011000111111100110110000 (
b10011111011000111111100110110000 /
b10011111011000111111100110110000 %$
b10011111011000111111100110110000 R
b10011111011000111111100110110000 e#
b1010 L
b100100 >
b1110 :
b1110 }#
b1010 7
b1010 ~#
1G
b0 T
b0 Z#
b0 u#
0<
b1011 @
b10010 =
b0 O
b1110 ;
b1010 8
1g#
b1011 h#
b0 j#
b1110000000000001010 J
b1110000000000001010 y#
b101001110000000000000000 H
b101001110000000000000000 {#
b10010 M
b10010 w#
b10010 I
b10010 z#
b1010 K
b1010 x#
b101001110000100100001011 3
b101001110000100100001011 f#
b101001110000100100001011 v#
b101001110000100100001011 !
b101001110000100100001011 N
b101001110000100100001011 +$
b0 g
b0 !$
b111 f
b111 |#
b100000 "
b100000 2
b100000 *$
b100000 e
1h
1)
#180000
0)
#185000
b110010 L
b101000 >
b1100011011000110110001101100011011000110110001101100011011000110110001101100011011000110110001101100011011000110110001101100011 X
b1100011011000110110001101100011011000110110001101100011011000110110001101100011011000110110001101100011011000110110001101100011 s
b10110 =
b10010 8
b1 i#
1W
b1110000000000110010 J
b1110000000000110010 y#
b11001001110000000000000000 H
b11001001110000000000000000 {#
b110110 M
b110110 w#
b110110 I
b110110 z#
b110010 K
b110010 x#
b11001001110000101100001011 3
b11001001110000101100001011 f#
b11001001110000101100001011 v#
b11001001110000101100001011 !
b11001001110000101100001011 N
b11001001110000101100001011 +$
0Z
b10010 [
b1010 ^
b1110 ]
1Y
b100100 "
b100100 2
b100100 *$
b100100 e
0h
1)
#190000
0)
